<svg width="89" height="71" viewBox="0 0 89 71" version="1.1" xmlns="http://www.w3.org/2000/svg" xmlns:xlink="http://www.w3.org/1999/xlink">
<title>ico-3</title>
<desc>Created using Figma</desc>
<g id="Canvas" transform="translate(533 -4424)">
<g id="ico-3">
<g id="Group">
<g id="Vector">
<use xlink:href="#path0_fill" transform="translate(-533 4424)" fill="#2F80ED"/>
<mask id="mask0_outline_ins">
<use xlink:href="#path0_fill" fill="white" transform="translate(-533 4424)"/>
</mask>
<g mask="url(#mask0_outline_ins)">
<use xlink:href="#path1_stroke_2x" transform="translate(-533 4424)" fill="#FAFAFA"/>
</g>
</g>
<g id="Vector">
<use xlink:href="#path2_fill" transform="translate(-487.37 4451.23)" fill="#FFFFFF"/>
<mask id="mask1_outline_ins">
<use xlink:href="#path2_fill" fill="white" transform="translate(-487.37 4451.23)"/>
</mask>
<g mask="url(#mask1_outline_ins)">
<use xlink:href="#path3_stroke_2x" transform="translate(-487.37 4451.23)" fill="#2F80ED"/>
</g>
</g>
</g>
<g id="Ellipse">
<mask id="mask2_outline_ins">
<use xlink:href="#path4_fill" fill="white" transform="translate(-523 4434)"/>
</mask>
<g mask="url(#mask2_outline_ins)">
<use xlink:href="#path5_stroke_2x" transform="translate(-523 4434)" fill="#FFFFFF"/>
</g>
</g>
<g id="Ellipse">
<mask id="mask3_outline_ins">
<use xlink:href="#path6_fill" fill="white" transform="translate(-479 4460)"/>
</mask>
<g mask="url(#mask3_outline_ins)">
<use xlink:href="#path7_stroke_2x" transform="translate(-479 4460)" fill="#2F80ED"/>
</g>
</g>
</g>
</g>
<defs>
<path id="path0_fill" d="M 5.84299 32.4076C 6.31082 34.0242 6.96006 35.583 7.78114 37.0455L 5.442 40.0188C 4.6782 40.9906 4.76412 42.3762 5.6234 43.2519L 9.65246 47.3124C 10.5213 48.188 11.8961 48.2649 12.8604 47.4952L 15.7915 45.157C 17.3 46.0327 18.904 46.7158 20.5748 47.1969L 21.014 50.9976C 21.1572 52.2293 22.1884 53.153 23.4105 53.153L 29.1103 53.153C 30.3324 53.153 31.3635 52.2292 31.5068 50.9976L 31.9269 47.3316C 33.7218 46.8601 35.4403 46.1577 37.0539 45.2436L 39.8895 47.5048C 40.8538 48.2746 42.2286 48.188 43.0975 47.322L 47.1265 43.2614C 47.9954 42.3858 48.0717 41.0002 47.3079 40.0283L 45.1024 37.209C 46.019 35.6116 46.7351 33.9086 47.2125 32.1285L 50.6114 31.734C 51.8336 31.5897 52.75 30.5505 52.75 29.3188L 52.75 23.5744C 52.75 22.3427 51.8335 21.3035 50.6114 21.1592L 47.2602 20.7647C 46.8018 19.0038 46.1145 17.32 45.2362 15.7419L 47.2985 13.1151C 48.0623 12.1432 47.9764 10.7576 47.1171 9.88199L 43.0976 5.83105C 42.2287 4.95543 40.8539 4.87845 39.8896 5.64823L 37.3595 7.66889C 35.7173 6.69705 33.9605 5.95614 32.1179 5.45578L 31.736 2.15537C 31.5928 0.923731 30.5617 -1.10117e-09 29.3396 -1.10117e-09L 23.6397 -1.10117e-09C 22.4176 -1.10117e-09 21.3865 0.923731 21.2433 2.15537L 20.8614 5.45578C 18.9709 5.96576 17.1665 6.73554 15.4861 7.74587L 12.8605 5.64823C 11.8962 4.87845 10.5214 4.96505 9.65256 5.83105L 5.6235 9.89162C 4.75467 10.7672 4.67829 12.1528 5.44209 13.1247L 7.63803 15.9247C 6.75965 17.522 6.09133 19.2251 5.65214 20.9956L 2.13865 21.3998C 0.916563 21.5441 4.54184e-12 22.5833 4.54184e-12 23.8149L 4.54184e-12 29.5594C 4.54184e-12 30.791 0.916563 31.8302 2.13865 31.9746L 5.84299 32.4076ZM 26.4943 16.8678C 31.6882 16.8678 35.9177 21.1304 35.9177 26.3649C 35.9177 31.5994 31.6882 35.862 26.4943 35.862C 21.3005 35.862 17.0709 31.5994 17.0709 26.3649C 17.0709 21.1304 21.3004 16.8678 26.4943 16.8678Z"/>
<path id="path1_stroke_2x" d="M 5.84299 32.4076L 6.80358 32.1297L 6.61891 31.4916L 5.95912 31.4144L 5.84299 32.4076ZM 7.78114 37.0455L 8.56708 37.6639L 8.98024 37.1387L 8.65313 36.556L 7.78114 37.0455ZM 5.442 40.0188L 4.65607 39.4005L 4.65576 39.4009L 5.442 40.0188ZM 5.6234 43.2519L 4.90966 43.9523L 4.91355 43.9562L 5.6234 43.2519ZM 9.65246 47.3124L 10.3623 46.6081L 10.3623 46.6081L 9.65246 47.3124ZM 12.8604 47.4952L 12.2368 46.7134L 12.2366 46.7136L 12.8604 47.4952ZM 15.7915 45.157L 16.2936 44.2921L 15.7023 43.9489L 15.1679 44.3752L 15.7915 45.157ZM 20.5748 47.1969L 21.5682 47.0821L 21.4918 46.4203L 20.8515 46.2359L 20.5748 47.1969ZM 21.014 50.9976L 20.0206 51.1124L 20.0207 51.1131L 21.014 50.9976ZM 31.5068 50.9976L 32.5001 51.1131L 32.5003 51.1115L 31.5068 50.9976ZM 31.9269 47.3316L 31.6728 46.3644L 31.0112 46.5382L 30.9334 47.2177L 31.9269 47.3316ZM 37.0539 45.2436L 37.6774 44.4617L 37.149 44.0404L 36.561 44.3735L 37.0539 45.2436ZM 39.8895 47.5048L 40.5134 46.7233L 40.513 46.7229L 39.8895 47.5048ZM 43.0975 47.322L 43.8034 48.0302L 43.8073 48.0263L 43.0975 47.322ZM 47.1265 43.2614L 47.8364 43.9657L 47.8364 43.9657L 47.1265 43.2614ZM 47.3079 40.0283L 46.5203 40.6445L 46.5217 40.6463L 47.3079 40.0283ZM 45.1024 37.209L 44.2351 36.7113L 43.9001 37.2951L 44.3148 37.8252L 45.1024 37.209ZM 47.2125 32.1285L 47.0972 31.1352L 46.4225 31.2135L 46.2466 31.8695L 47.2125 32.1285ZM 50.6114 31.734L 50.7267 32.7273L 50.7287 32.7271L 50.6114 31.734ZM 50.6114 21.1592L 50.7287 20.1661L 50.7283 20.1661L 50.6114 21.1592ZM 47.2602 20.7647L 46.2924 21.0166L 46.4646 21.6779L 47.1433 21.7578L 47.2602 20.7647ZM 45.2362 15.7419L 44.4496 15.1244L 44.0391 15.6473L 44.3624 16.2282L 45.2362 15.7419ZM 47.2985 13.1151L 46.5122 12.4971L 46.5119 12.4975L 47.2985 13.1151ZM 47.1171 9.88199L 47.8308 9.18157L 47.8269 9.17765L 47.1171 9.88199ZM 43.0976 5.83105L 42.3877 6.5354L 42.3877 6.5354L 43.0976 5.83105ZM 39.8896 5.64823L 39.2657 4.8667L 39.2655 4.86685L 39.8896 5.64823ZM 37.3595 7.66889L 36.8502 8.52948L 37.4442 8.88102L 37.9835 8.45027L 37.3595 7.66889ZM 32.1179 5.45578L 31.1245 5.57073L 31.2024 6.24338L 31.8558 6.42084L 32.1179 5.45578ZM 31.736 2.15537L 32.7294 2.04043L 32.7293 2.03987L 31.736 2.15537ZM 21.2433 2.15537L 20.25 2.03987L 20.2499 2.04043L 21.2433 2.15537ZM 20.8614 5.45578L 21.1218 6.42127L 21.7768 6.24459L 21.8547 5.57073L 20.8614 5.45578ZM 15.4861 7.74587L 14.8619 8.52714L 15.4053 8.96128L 16.0014 8.60288L 15.4861 7.74587ZM 12.8605 5.64823L 13.4847 4.86695L 13.4844 4.8667L 12.8605 5.64823ZM 9.65256 5.83105L 8.94659 5.12278L 8.9427 5.1267L 9.65256 5.83105ZM 5.6235 9.89162L 6.33335 10.596L 6.33335 10.596L 5.6235 9.89162ZM 5.44209 13.1247L 6.22897 12.5076L 6.22833 12.5067L 5.44209 13.1247ZM 7.63803 15.9247L 8.51427 16.4066L 8.83268 15.8276L 8.42491 15.3076L 7.63803 15.9247ZM 5.65214 20.9956L 5.76641 21.9891L 6.45568 21.9098L 6.62272 21.2364L 5.65214 20.9956ZM 2.13865 21.3998L 2.02438 20.4063L 2.02136 20.4067L 2.13865 21.3998ZM 2.13865 31.9746L 2.02136 32.9677L 2.02252 32.9678L 2.13865 31.9746ZM 4.88241 32.6856C 5.37115 34.3744 6.04981 36.0044 6.90916 37.5351L 8.65313 36.556C 7.8703 35.1616 7.25049 33.6739 6.80358 32.1297L 4.88241 32.6856ZM 6.99521 36.4272L 4.65607 39.4005L 6.22793 40.6371L 8.56708 37.6639L 6.99521 36.4272ZM 4.65576 39.4009C 3.5782 40.7719 3.7019 42.7215 4.90967 43.9523L 6.33714 42.5514C 5.82635 42.0309 5.77819 41.2094 6.22823 40.6367L 4.65576 39.4009ZM 4.91355 43.9562L 8.94261 48.0168L 10.3623 46.6081L 6.33326 42.5475L 4.91355 43.9562ZM 8.9426 48.0168C 10.1726 49.2564 12.1226 49.3637 13.4843 48.2767L 12.2366 46.7136C 11.6696 47.1662 10.8699 47.1197 10.3623 46.6081L 8.9426 48.0168ZM 13.484 48.2769L 16.4151 45.9387L 15.1679 44.3752L 12.2368 46.7134L 13.484 48.2769ZM 15.2895 46.0218C 16.8691 46.9388 18.5488 47.6541 20.2981 48.1578L 20.8515 46.2359C 19.2593 45.7774 17.731 45.1266 16.2936 44.2921L 15.2895 46.0218ZM 19.5814 47.3117L 20.0206 51.1124L 22.0074 50.8828L 21.5682 47.0821L 19.5814 47.3117ZM 20.0207 51.1131C 20.2217 52.8412 21.673 54.153 23.4105 54.153L 23.4105 52.153C 22.7038 52.153 22.0928 51.6174 22.0073 50.8821L 20.0207 51.1131ZM 23.4105 54.153L 29.1103 54.153L 29.1103 52.153L 23.4105 52.153L 23.4105 54.153ZM 29.1103 54.153C 30.8478 54.153 32.2991 52.8411 32.5001 51.1131L 30.5135 50.8821C 30.428 51.6173 29.817 52.153 29.1103 52.153L 29.1103 54.153ZM 32.5003 51.1115L 32.9204 47.4454L 30.9334 47.2177L 30.5133 50.8838L 32.5003 51.1115ZM 32.1809 48.2988C 34.0605 47.805 35.8592 47.0697 37.5468 46.1136L 36.561 44.3735C 35.0215 45.2457 33.3831 45.9151 31.6728 46.3644L 32.1809 48.2988ZM 36.4304 46.0254L 39.266 48.2866L 40.513 46.7229L 37.6774 44.4617L 36.4304 46.0254ZM 39.2656 48.2863C 40.6325 49.3774 42.5791 49.2505 43.8034 48.0302L 42.3915 46.6137C 41.8782 47.1254 41.0751 47.1717 40.5134 46.7233L 39.2656 48.2863ZM 43.8073 48.0263L 47.8364 43.9657L 46.4167 42.557L 42.3876 46.6176L 43.8073 48.0263ZM 47.8364 43.9657C 49.0632 42.7294 49.1677 40.7764 48.0942 39.4104L 46.5217 40.6463C 46.9757 41.224 46.9275 42.0422 46.4167 42.557L 47.8364 43.9657ZM 48.0956 39.4122L 45.8901 36.5929L 44.3148 37.8252L 46.5203 40.6445L 48.0956 39.4122ZM 45.9698 37.7067C 46.9272 36.0382 47.6774 34.2553 48.1783 32.3875L 46.2466 31.8695C 45.7927 33.5619 45.1109 35.1851 44.2351 36.7113L 45.9698 37.7067ZM 47.3277 33.1218L 50.7267 32.7273L 50.4961 30.7407L 47.0972 31.1352L 47.3277 33.1218ZM 50.7287 32.7271C 52.4586 32.5228 53.75 31.053 53.75 29.3188L 51.75 29.3188C 51.75 30.048 51.2085 30.6565 50.4941 30.7409L 50.7287 32.7271ZM 53.75 29.3188L 53.75 23.5744L 51.75 23.5744L 51.75 29.3188L 53.75 29.3188ZM 53.75 23.5744C 53.75 21.8402 52.4585 20.3704 50.7287 20.1661L 50.4941 22.1523C 51.2084 22.2367 51.75 22.8453 51.75 23.5744L 53.75 23.5744ZM 50.7283 20.1661L 47.3771 19.7716L 47.1433 21.7578L 50.4945 22.1523L 50.7283 20.1661ZM 48.2279 20.5128C 47.7473 18.6664 47.0274 16.904 46.11 15.2556L 44.3624 16.2282C 45.2015 17.7359 45.8563 19.3413 46.2924 21.0166L 48.2279 20.5128ZM 46.0228 16.3594L 48.085 13.7326L 46.5119 12.4975L 44.4496 15.1244L 46.0228 16.3594ZM 48.0847 13.733C 49.1623 12.3619 49.0386 10.4123 47.8308 9.18158L 46.4033 10.5824C 46.9141 11.1029 46.9623 11.9245 46.5122 12.4971L 48.0847 13.733ZM 47.8269 9.17765L 43.8074 5.1267L 42.3877 6.5354L 46.4072 10.5863L 47.8269 9.17765ZM 43.8074 5.1267C 42.5774 3.88711 40.6275 3.77967 39.2657 4.8667L 40.5135 6.42976C 41.0803 5.97724 41.88 6.02375 42.3877 6.5354L 43.8074 5.1267ZM 39.2655 4.86685L 36.7354 6.88751L 37.9835 8.45027L 40.5136 6.42961L 39.2655 4.86685ZM 37.8688 6.8083C 36.1489 5.79044 34.3088 5.01451 32.38 4.49073L 31.8558 6.42084C 33.6121 6.89776 35.2858 7.60365 36.8502 8.52948L 37.8688 6.8083ZM 33.1113 5.34084L 32.7294 2.04043L 30.7426 2.27032L 31.1245 5.57073L 33.1113 5.34084ZM 32.7293 2.03987C 32.5284 0.311805 31.077 -1 29.3396 -1L 29.3396 1C 30.0463 1 30.6572 1.53566 30.7427 2.27087L 32.7293 2.03987ZM 29.3396 -1L 23.6397 -1L 23.6397 1L 29.3396 1L 29.3396 -1ZM 23.6397 -1C 21.9022 -1 20.4509 0.311806 20.25 2.03987L 22.2366 2.27087C 22.3221 1.53566 22.933 1 23.6397 1L 23.6397 -1ZM 20.2499 2.04043L 19.868 5.34084L 21.8547 5.57073L 22.2366 2.27032L 20.2499 2.04043ZM 20.6009 4.4903C 18.6203 5.02459 16.7302 5.83103 14.9708 6.88885L 16.0014 8.60288C 17.6028 7.64004 19.3216 6.90693 21.1218 6.42127L 20.6009 4.4903ZM 16.1103 6.96459L 13.4847 4.86695L 12.2363 6.42951L 14.8619 8.52714L 16.1103 6.96459ZM 13.4844 4.8667C 12.1175 3.77558 10.1709 3.90245 8.9466 5.12279L 10.3585 6.53931C 10.8718 6.02765 11.6749 5.98133 12.2367 6.42976L 13.4844 4.8667ZM 8.9427 5.1267L 4.91364 9.18727L 6.33335 10.596L 10.3624 6.5354L 8.9427 5.1267ZM 4.91364 9.18727C 3.68685 10.4237 3.58229 12.3766 4.65586 13.7426L 6.22833 12.5067C 5.7743 11.929 5.82249 11.1108 6.33335 10.596L 4.91364 9.18727ZM 4.65521 13.7418L 6.85115 16.5418L 8.42491 15.3076L 6.22897 12.5076L 4.65521 13.7418ZM 6.76178 15.4429C 5.84195 17.1155 5.14176 18.8997 4.68156 20.7549L 6.62272 21.2364C 7.04089 19.5506 7.67735 17.9285 8.51427 16.4066L 6.76178 15.4429ZM 5.53787 20.0022L 2.02438 20.4063L 2.25292 22.3932L 5.76641 21.9891L 5.53787 20.0022ZM 2.02136 20.4067C 0.291503 20.611 -1 22.0808 -1 23.8149L 1 23.8149C 1 23.0858 1.54162 22.4772 2.25594 22.3929L 2.02136 20.4067ZM -1 23.8149L -1 29.5594L 1 29.5594L 1 23.8149L -1 23.8149ZM -1 29.5594C -1 31.2935 0.291504 32.7633 2.02136 32.9677L 2.25594 30.9815C 1.54162 30.8971 1 30.2885 1 29.5594L -1 29.5594ZM 2.02252 32.9678L 5.72687 33.4009L 5.95912 31.4144L 2.25477 30.9813L 2.02252 32.9678ZM 26.4943 17.8678C 31.1286 17.8678 34.9177 21.6754 34.9177 26.3649L 36.9177 26.3649C 36.9177 20.5855 32.2478 15.8678 26.4943 15.8678L 26.4943 17.8678ZM 34.9177 26.3649C 34.9177 31.0545 31.1286 34.862 26.4943 34.862L 26.4943 36.862C 32.2478 36.862 36.9177 32.1443 36.9177 26.3649L 34.9177 26.3649ZM 26.4943 34.862C 21.8602 34.862 18.0709 31.0545 18.0709 26.3649L 16.0709 26.3649C 16.0709 32.1443 20.7409 36.862 26.4943 36.862L 26.4943 34.862ZM 18.0709 26.3649C 18.0709 21.6754 21.8601 17.8678 26.4943 17.8678L 26.4943 15.8678C 20.7408 15.8678 16.0709 20.5855 16.0709 26.3649L 18.0709 26.3649Z"/>
<path id="path2_fill" d="M 37.2142 6.58918L 34.2067 4.02968C 33.2807 3.24066 31.9153 3.27914 31.037 4.11627L 29.3757 5.68469C 27.9724 5.00152 26.4829 4.52041 24.9457 4.24136L 24.4781 1.93204C 24.2394 0.738886 23.1414 -0.0886226 21.9382 0.00759933L 18.0142 0.344376C 16.8112 0.45022 15.866 1.4413 15.8278 2.66332L 15.7515 5.01114C 14.2429 5.55961 12.8203 6.31014 11.5219 7.25311L 9.53607 5.92525C 8.52385 5.2517 7.17774 5.44414 6.39493 6.37749L 3.85529 9.42773C 3.0723 10.3611 3.11048 11.7371 3.94102 12.6223L 5.67878 14.4889C 5.07719 15.8553 4.64754 17.2891 4.3994 18.7612L 1.91705 19.2711C 0.733152 19.5117 -0.0879362 20.6182 0.00753915 21.8307L 0.341703 25.7855C 0.446726 26.9979 1.43012 27.9505 2.64266 27.9889L 5.32552 28.0754C 5.81263 29.3648 6.45222 30.5869 7.22547 31.7319L 5.72661 34.0123C 5.05828 35.0323 5.24923 36.389 6.17524 37.178L 9.18272 39.7375C 10.1089 40.5266 11.4741 40.4881 12.3526 39.6509L 14.3194 37.7939C 15.6083 38.4001 16.964 38.8523 18.3579 39.1217L 18.9022 41.8352C 19.1409 43.0283 20.2389 43.8558 21.4418 43.7596L 25.3659 43.4228C 26.5689 43.317 27.5141 42.326 27.5523 41.1039L 27.6382 38.4481C 29.0703 37.9381 30.426 37.2453 31.6767 36.389L 33.8441 37.8324C 34.8561 38.5059 36.2022 38.3135 36.9852 37.3801L 39.5249 34.3491C 40.3077 33.4158 40.2695 32.0398 39.4389 31.1545L 37.6917 29.2879C 38.3314 27.9216 38.7994 26.4783 39.0665 24.9963L 41.4534 24.5056C 42.6373 24.2651 43.4584 23.1585 43.3629 21.946L 43.0287 17.9913C 42.9237 16.7789 41.9403 15.8263 40.7278 15.7878L 38.3313 15.7108C 37.8348 14.306 37.1664 12.9782 36.3359 11.7465L 37.6438 9.76431C 38.3313 8.74455 38.1404 7.3782 37.2142 6.58918ZM 22.4252 29.4514C 18.1861 29.8172 14.4433 26.6321 14.0902 22.36C 13.7272 18.0877 16.8877 14.3157 21.1266 13.9597C 25.3657 13.594 29.1085 16.7791 29.4617 21.0512C 29.8246 25.3236 26.6642 29.0955 22.4252 29.4514Z"/>
<path id="path3_stroke_2x" d="M 37.2142 6.58918L 37.8627 5.82795L 37.8623 5.82763L 37.2142 6.58918ZM 34.2067 4.02968L 33.5581 4.79084L 33.5586 4.79122L 34.2067 4.02968ZM 31.037 4.11627L 31.7235 4.84342L 31.727 4.84013L 31.037 4.11627ZM 29.3757 5.68469L 28.9381 6.58382L 29.5596 6.88638L 30.0622 6.41183L 29.3757 5.68469ZM 24.9457 4.24136L 23.9656 4.43984L 24.1001 5.10422L 24.7671 5.22529L 24.9457 4.24136ZM 24.4781 1.93204L 23.4975 2.1282L 23.498 2.13051L 24.4781 1.93204ZM 21.9382 0.00759933L 21.8585 -0.989235L 21.8527 -0.988738L 21.9382 0.00759933ZM 18.0142 0.344376L 17.9287 -0.651963L 17.9265 -0.651776L 18.0142 0.344376ZM 15.8278 2.66332L 16.8273 2.6958L 16.8273 2.69456L 15.8278 2.66332ZM 15.7515 5.01114L 16.0932 5.95096L 16.729 5.7198L 16.751 5.04362L 15.7515 5.01114ZM 11.5219 7.25311L 10.966 8.08439L 11.5455 8.47186L 12.1095 8.06225L 11.5219 7.25311ZM 9.53607 5.92525L 10.0919 5.09397L 10.0901 5.09272L 9.53607 5.92525ZM 6.39493 6.37749L 5.62873 5.73488L 5.62644 5.73764L 6.39493 6.37749ZM 3.85529 9.42773L 4.62142 10.0704L 4.62379 10.0676L 3.85529 9.42773ZM 3.94102 12.6223L 4.67295 11.9409L 4.6703 11.9381L 3.94102 12.6223ZM 5.67878 14.4889L 6.59399 14.8919L 6.85927 14.2894L 6.4107 13.8075L 5.67878 14.4889ZM 4.3994 18.7612L 4.60064 19.7407L 5.27163 19.6029L 5.38549 18.9274L 4.3994 18.7612ZM 1.91705 19.2711L 2.11617 20.2511L 2.11828 20.2507L 1.91705 19.2711ZM 0.00753915 21.8307L -0.989391 21.9092L -0.98891 21.9149L 0.00753915 21.8307ZM 0.341703 25.7855L -0.654749 25.8697L -0.654566 25.8718L 0.341703 25.7855ZM 2.64266 27.9889L 2.67488 26.9895L 2.67439 26.9894L 2.64266 27.9889ZM 5.32552 28.0754L 6.26098 27.722L 6.02503 27.0975L 5.35774 27.076L 5.32552 28.0754ZM 7.22547 31.7319L 8.06113 32.2811L 8.42708 31.7243L 8.05418 31.1722L 7.22547 31.7319ZM 5.72661 34.0123L 4.89095 33.4631L 4.89018 33.4643L 5.72661 34.0123ZM 6.17524 37.178L 5.52669 37.9392L 5.52713 37.9396L 6.17524 37.178ZM 9.18272 39.7375L 9.8312 38.9763L 9.83083 38.976L 9.18272 39.7375ZM 12.3526 39.6509L 11.6661 38.9238L 11.6627 38.927L 12.3526 39.6509ZM 14.3194 37.7939L 14.745 36.8889L 14.1283 36.5989L 13.6328 37.0668L 14.3194 37.7939ZM 18.3579 39.1217L 19.3384 38.925L 19.2064 38.2672L 18.5477 38.1399L 18.3579 39.1217ZM 18.9022 41.8352L 19.8828 41.639L 19.8827 41.6385L 18.9022 41.8352ZM 21.4418 43.7596L 21.5216 44.7565L 21.5274 44.756L 21.4418 43.7596ZM 25.3659 43.4228L 25.4514 44.4192L 25.4535 44.419L 25.3659 43.4228ZM 27.5523 41.1039L 26.5528 41.0716L 26.5528 41.0727L 27.5523 41.1039ZM 27.6382 38.4481L 27.3027 37.506L 26.6608 37.7346L 26.6387 38.4157L 27.6382 38.4481ZM 31.6767 36.389L 32.231 35.5567L 31.669 35.1824L 31.1118 35.5639L 31.6767 36.389ZM 33.8441 37.8324L 33.2898 38.6647L 33.29 38.6648L 33.8441 37.8324ZM 36.9852 37.3801L 37.7514 38.0228L 37.7517 38.0224L 36.9852 37.3801ZM 39.5249 34.3491L 38.7587 33.7065L 38.7584 33.7069L 39.5249 34.3491ZM 39.4389 31.1545L 38.7089 31.8379L 38.7097 31.8388L 39.4389 31.1545ZM 37.6917 29.2879L 36.786 28.8639L 36.4989 29.477L 36.9616 29.9713L 37.6917 29.2879ZM 39.0665 24.9963L 38.8651 24.0168L 38.2024 24.1531L 38.0824 24.8189L 39.0665 24.9963ZM 41.4534 24.5056L 41.2543 23.5256L 41.252 23.5261L 41.4534 24.5056ZM 43.3629 21.946L 44.3598 21.8675L 44.3593 21.8618L 43.3629 21.946ZM 43.0287 17.9913L 44.0252 17.9071L 44.025 17.905L 43.0287 17.9913ZM 40.7278 15.7878L 40.6957 16.7873L 40.696 16.7873L 40.7278 15.7878ZM 38.3313 15.7108L 37.3885 16.0441L 37.6162 16.6884L 38.2992 16.7103L 38.3313 15.7108ZM 36.3359 11.7465L 35.5012 11.1957L 35.1339 11.7525L 35.5068 12.3055L 36.3359 11.7465ZM 37.6438 9.76431L 36.8146 9.20527L 36.8091 9.21356L 37.6438 9.76431ZM 22.4252 29.4514L 22.3416 28.4549L 22.3393 28.4551L 22.4252 29.4514ZM 14.0902 22.36L 15.0868 22.2776L 15.0866 22.2753L 14.0902 22.36ZM 21.1266 13.9597L 21.2103 14.9562L 21.2125 14.956L 21.1266 13.9597ZM 29.4617 21.0512L 28.4651 21.1336L 28.4653 21.1359L 29.4617 21.0512ZM 37.8623 5.82763L 34.8548 3.26813L 33.5586 4.79122L 36.5661 7.35073L 37.8623 5.82763ZM 34.8553 3.26851C 33.5398 2.14763 31.5965 2.20153 30.3471 3.39241L 31.727 4.84013C 32.2341 4.35676 33.0216 4.33368 33.5581 4.79084L 34.8553 3.26851ZM 30.3505 3.38914L 28.6893 4.95756L 30.0622 6.41183L 31.7235 4.84341L 30.3505 3.38914ZM 29.8134 4.78557C 28.3256 4.06128 26.7487 3.55232 25.1243 3.25744L 24.7671 5.22529C 26.2171 5.4885 27.6191 5.94176 28.9381 6.58382L 29.8134 4.78557ZM 25.9258 4.04289L 25.4582 1.73357L 23.498 2.13051L 23.9656 4.43984L 25.9258 4.04289ZM 25.4586 1.73588C 25.1208 0.0472006 23.5685 -1.12597 21.8585 -0.989218L 22.0179 1.00442C 22.7143 0.948726 23.3579 1.43057 23.4975 2.1282L 25.4586 1.73588ZM 21.8527 -0.988738L 17.9287 -0.651961L 18.0997 1.34071L 22.0237 1.00394L 21.8527 -0.988738ZM 17.9265 -0.651776C 16.2201 -0.501639 14.8823 0.902946 14.8283 2.63209L 16.8273 2.69456C 16.8497 1.97966 17.4023 1.40208 18.1018 1.34053L 17.9265 -0.651776ZM 14.8283 2.63085L 14.752 4.97867L 16.751 5.04362L 16.8273 2.6958L 14.8283 2.63085ZM 15.4098 4.07132C 13.8155 4.65097 12.3098 5.44501 10.9342 6.44397L 12.1095 8.06225C 13.3308 7.17526 14.6704 6.46824 16.0932 5.95096L 15.4098 4.07132ZM 12.0777 6.42184L 10.0919 5.09397L 8.98021 6.75652L 10.966 8.08439L 12.0777 6.42184ZM 10.0901 5.09272C 8.65392 4.13709 6.73917 4.41089 5.62874 5.73488L 7.16113 7.0201C 7.6163 6.47739 8.39377 6.3663 8.9821 6.75778L 10.0901 5.09272ZM 5.62644 5.73764L 3.0868 8.78787L 4.62379 10.0676L 7.16343 7.01734L 5.62644 5.73764ZM 3.08917 8.78503C 1.98155 10.1054 2.03402 12.0512 3.21174 13.3065L 4.6703 11.9381C 4.18695 11.4229 4.16305 10.6168 4.62141 10.0704L 3.08917 8.78503ZM 3.20911 13.3037L 4.94686 15.1703L 6.4107 13.8075L 4.67294 11.9409L 3.20911 13.3037ZM 4.76356 14.0859C 4.12872 15.5278 3.67523 17.0411 3.41332 18.5949L 5.38549 18.9274C 5.61986 17.537 6.02565 16.1827 6.59399 14.8919L 4.76356 14.0859ZM 4.19817 17.7816L 1.71581 18.2916L 2.11828 20.2507L 4.60064 19.7407L 4.19817 17.7816ZM 1.71793 18.2912C 0.0289598 18.6343 -1.12371 20.2032 -0.989375 21.9092L 1.00445 21.7522C 0.947841 21.0333 1.43734 20.389 2.11617 20.2511L 1.71793 18.2912ZM -0.98891 21.9149L -0.654746 25.8697L 1.33815 25.7013L 1.00399 21.7465L -0.98891 21.9149ZM -0.654566 25.8718C -0.506963 27.5757 0.878778 28.9335 2.61093 28.9884L 2.67439 26.9894C 1.98147 26.9674 1.40041 26.42 1.33797 25.6992L -0.654566 25.8718ZM 2.61043 28.9884L 5.29329 29.0749L 5.35774 27.076L 2.67488 26.9895L 2.61043 28.9884ZM 4.39005 28.4289C 4.90572 29.7938 5.58181 31.0849 6.39676 32.2916L 8.05418 31.1722C 7.32262 30.089 6.71954 28.9358 6.26098 27.722L 4.39005 28.4289ZM 6.38981 31.1826L 4.89095 33.4631L 6.56227 34.5616L 8.06113 32.2811L 6.38981 31.1826ZM 4.89018 33.4643C 3.94769 34.9026 4.21442 36.8211 5.52669 37.9392L 6.8238 36.4169C 6.28403 35.957 6.16887 35.162 6.56304 34.5604L 4.89018 33.4643ZM 5.52713 37.9396L 8.5346 40.4991L 9.83083 38.976L 6.82335 36.4165L 5.52713 37.9396ZM 8.53424 40.4988C 9.8499 41.6196 11.7929 41.5657 13.0425 40.3749L 11.6627 38.927C 11.1554 39.4105 10.3679 39.4336 9.8312 38.9763L 8.53424 40.4988ZM 13.0391 40.378L 15.0059 38.521L 13.6328 37.0668L 11.6661 38.9238L 13.0391 40.378ZM 13.8938 38.6988C 15.2535 39.3383 16.6882 39.8175 18.1681 40.1035L 18.5477 38.1399C 17.2398 37.8871 15.9631 37.4618 14.745 36.8889L 13.8938 38.6988ZM 17.3774 39.3184L 17.9217 42.0319L 19.8827 41.6385L 19.3384 38.925L 17.3774 39.3184ZM 17.9216 42.0313C 18.2594 43.72 19.8117 44.8932 21.5216 44.7564L 21.3621 42.7628C 20.666 42.8185 20.0223 42.3367 19.8828 41.639L 17.9216 42.0313ZM 21.5274 44.756L 25.4514 44.4192L 25.2804 42.4265L 21.3563 42.7633L 21.5274 44.756ZM 25.4535 44.419C 27.1599 44.2689 28.4977 42.8644 28.5518 41.1351L 26.5528 41.0727C 26.5304 41.7876 25.9778 42.3651 25.2782 42.4267L 25.4535 44.419ZM 28.5517 41.1362L 28.6377 38.4804L 26.6387 38.4157L 26.5528 41.0716L 28.5517 41.1362ZM 27.9737 39.3901C 29.4877 38.851 30.9204 38.1187 32.2416 37.2142L 31.1118 35.5639C 29.9316 36.3719 28.653 37.0252 27.3027 37.506L 27.9737 39.3901ZM 31.1224 37.2214L 33.2898 38.6647L 34.3984 37L 32.231 35.5567L 31.1224 37.2214ZM 33.29 38.6648C 34.7261 39.6206 36.6408 39.3466 37.7514 38.0228L 36.2191 36.7374C 35.7637 37.2803 34.9862 37.3912 34.3981 36.9999L 33.29 38.6648ZM 37.7517 38.0224L 40.2914 34.9914L 38.7584 33.7069L 36.2187 36.7379L 37.7517 38.0224ZM 40.2911 34.9917C 41.3984 33.6714 41.3459 31.7256 40.1682 30.4703L 38.7097 31.8388C 39.193 32.354 39.2169 33.1601 38.7587 33.7065L 40.2911 34.9917ZM 40.169 30.4712L 38.4217 28.6045L 36.9616 29.9713L 38.7089 31.8379L 40.169 30.4712ZM 38.5973 29.712C 39.2722 28.2706 39.7675 26.7446 40.0506 25.1737L 38.0824 24.8189C 37.8312 26.212 37.3907 27.5726 36.786 28.8639L 38.5973 29.712ZM 39.2679 25.9759L 41.6548 25.4851L 41.252 23.5261L 38.8651 24.0168L 39.2679 25.9759ZM 41.6525 25.4856C 43.3415 25.1424 44.4941 23.5736 44.3598 21.8675L 42.366 22.0245C 42.4226 22.7435 41.9331 23.3877 41.2543 23.5256L 41.6525 25.4856ZM 44.3593 21.8618L 44.0252 17.9071L 42.0323 18.0755L 42.3664 22.0302L 44.3593 21.8618ZM 44.025 17.905C 43.8774 16.201 42.4916 14.8433 40.7595 14.7883L 40.696 16.7873C 41.389 16.8093 41.97 17.3567 42.0325 18.0776L 44.025 17.905ZM 40.7599 14.7883L 38.3634 14.7113L 38.2992 16.7103L 40.6957 16.7873L 40.7599 14.7883ZM 39.2742 15.3776C 38.7495 13.8932 38.043 12.4895 37.165 11.1874L 35.5068 12.3055C 36.2899 13.4669 36.9201 14.7188 37.3885 16.0441L 39.2742 15.3776ZM 37.1706 12.2972L 38.4785 10.3151L 36.8091 9.21356L 35.5012 11.1957L 37.1706 12.2972ZM 38.473 10.3233C 39.4448 8.88191 39.1765 6.9472 37.8627 5.82795L 36.5657 7.35041C 37.1043 7.8092 37.2179 8.60719 36.8147 9.2053L 38.473 10.3233ZM 22.3393 28.4551C 18.6591 28.7726 15.3949 26.0052 15.0868 22.2776L 13.0935 22.4423C 13.4917 27.259 17.7132 30.8617 22.5112 30.4477L 22.3393 28.4551ZM 15.0866 22.2753C 14.7698 18.5466 17.5292 15.2653 21.2103 14.9562L 21.0429 12.9632C 16.2461 13.3661 12.6847 17.6289 13.0937 22.4446L 15.0866 22.2753ZM 21.2125 14.956C 24.8928 14.6385 28.1569 17.406 28.4651 21.1336L 30.4583 20.9689C 30.0601 16.1522 25.8386 12.5495 21.0406 12.9634L 21.2125 14.956ZM 28.4653 21.1359C 28.782 24.8647 26.0226 28.1458 22.3416 28.4549L 22.5089 30.4479C 27.3057 30.0451 30.8672 25.7824 30.4581 20.9666L 28.4653 21.1359Z"/>
<path id="path4_fill" d="M 33 16.5C 33 25.6127 25.6127 33 16.5 33C 7.3873 33 0 25.6127 0 16.5C 0 7.3873 7.3873 0 16.5 0C 25.6127 0 33 7.3873 33 16.5Z"/>
<path id="path5_stroke_2x" d="M 32 16.5C 32 25.0604 25.0604 32 16.5 32L 16.5 34C 26.165 34 34 26.165 34 16.5L 32 16.5ZM 16.5 32C 7.93959 32 1 25.0604 1 16.5L -1 16.5C -1 26.165 6.83502 34 16.5 34L 16.5 32ZM 1 16.5C 1 7.93959 7.93959 1 16.5 1L 16.5 -1C 6.83502 -1 -1 6.83502 -1 16.5L 1 16.5ZM 16.5 1C 25.0604 1 32 7.93959 32 16.5L 34 16.5C 34 6.83502 26.165 -1 16.5 -1L 16.5 1Z"/>
<path id="path6_fill" d="M 27 13C 27 20.1797 20.9558 26 13.5 26C 6.04416 26 0 20.1797 0 13C 0 5.8203 6.04416 0 13.5 0C 20.9558 0 27 5.8203 27 13Z"/>
<path id="path7_stroke_2x" d="M 26 13C 26 19.5922 20.4395 25 13.5 25L 13.5 27C 21.4722 27 28 20.7672 28 13L 26 13ZM 13.5 25C 6.56053 25 1 19.5922 1 13L -1 13C -1 20.7672 5.52778 27 13.5 27L 13.5 25ZM 1 13C 1 6.40782 6.56053 1 13.5 1L 13.5 -1C 5.52778 -1 -1 5.23278 -1 13L 1 13ZM 13.5 1C 20.4395 1 26 6.40782 26 13L 28 13C 28 5.23278 21.4722 -1 13.5 -1L 13.5 1Z"/>
</defs>
</svg>
