<svg width="87" height="71" viewBox="0 0 87 71" version="1.1" xmlns="http://www.w3.org/2000/svg" xmlns:xlink="http://www.w3.org/1999/xlink">
<title>ico-6</title>
<desc>Created using Figma</desc>
<g id="Canvas" transform="translate(-29 -4636)">
<g id="ico-6">
<g id="Rectangle 9">
<use xlink:href="#path0_fill" transform="translate(48 4636)" fill="#2F80ED"/>
</g>
<g id="Line 2">
<use xlink:href="#path1_stroke" transform="translate(55 4644)" fill="#FFFFFF"/>
</g>
<g id="Line 2.1">
<use xlink:href="#path1_stroke" transform="translate(55 4648)" fill="#FFFFFF"/>
</g>
<g id="Line 2.2">
<use xlink:href="#path2_stroke" transform="translate(55 4652)" fill="#FFFFFF"/>
</g>
<g id="Rectangle 9.1">
<use xlink:href="#path3_fill" transform="translate(30 4690)" fill="#FFFFFF"/>
<mask id="mask0_outline_out">
<rect id="mask0_outline_inv" fill="white" x="-1" y="-1" width="23" height="18" transform="translate(30 4690)"/>
<use xlink:href="#path3_fill" fill="black" transform="translate(30 4690)"/>
</mask>
<g mask="url(#mask0_outline_out)">
<use xlink:href="#path4_stroke_2x" transform="translate(30 4690)" fill="#2F80ED"/>
</g>
</g>
<g id="Rectangle 9.4">
<use xlink:href="#path5_fill" transform="translate(34 4694)" fill="#FFFFFF"/>
<mask id="mask1_outline_out">
<rect id="mask1_outline_inv" fill="white" x="-1" y="-1" width="15" height="10" transform="translate(34 4694)"/>
<use xlink:href="#path5_fill" fill="black" transform="translate(34 4694)"/>
</mask>
<g mask="url(#mask1_outline_out)">
<use xlink:href="#path6_stroke_2x" transform="translate(34 4694)" fill="#2F80ED"/>
</g>
</g>
<g id="Rectangle 9.2">
<use xlink:href="#path3_fill" transform="translate(62 4690)" fill="#FFFFFF"/>
<mask id="mask2_outline_out">
<rect id="mask2_outline_inv" fill="white" x="-1" y="-1" width="23" height="18" transform="translate(62 4690)"/>
<use xlink:href="#path3_fill" fill="black" transform="translate(62 4690)"/>
</mask>
<g mask="url(#mask2_outline_out)">
<use xlink:href="#path4_stroke_2x" transform="translate(62 4690)" fill="#2F80ED"/>
</g>
</g>
<g id="Rectangle 9.5">
<use xlink:href="#path5_fill" transform="translate(66 4694)" fill="#FFFFFF"/>
<mask id="mask3_outline_out">
<rect id="mask3_outline_inv" fill="white" x="-1" y="-1" width="15" height="10" transform="translate(66 4694)"/>
<use xlink:href="#path5_fill" fill="black" transform="translate(66 4694)"/>
</mask>
<g mask="url(#mask3_outline_out)">
<use xlink:href="#path6_stroke_2x" transform="translate(66 4694)" fill="#2F80ED"/>
</g>
</g>
<g id="Rectangle 9.3">
<use xlink:href="#path3_fill" transform="translate(94 4690)" fill="#FFFFFF"/>
<mask id="mask4_outline_out">
<rect id="mask4_outline_inv" fill="white" x="-1" y="-1" width="23" height="18" transform="translate(94 4690)"/>
<use xlink:href="#path3_fill" fill="black" transform="translate(94 4690)"/>
</mask>
<g mask="url(#mask4_outline_out)">
<use xlink:href="#path4_stroke_2x" transform="translate(94 4690)" fill="#2F80ED"/>
</g>
</g>
<g id="Vector">
<use xlink:href="#path7_stroke" transform="translate(40.2122 4664)" fill="#2F80ED"/>
</g>
<g id="Rectangle 9.6">
<use xlink:href="#path5_fill" transform="translate(98 4694)" fill="#FFFFFF"/>
<mask id="mask5_outline_out">
<rect id="mask5_outline_inv" fill="white" x="-1" y="-1" width="15" height="10" transform="translate(98 4694)"/>
<use xlink:href="#path5_fill" fill="black" transform="translate(98 4694)"/>
</mask>
<g mask="url(#mask5_outline_out)">
<use xlink:href="#path6_stroke_2x" transform="translate(98 4694)" fill="#2F80ED"/>
</g>
</g>
<g id="Line 3">
<use xlink:href="#path8_stroke" transform="matrix(0.868243 -0.496139 0.496139 0.868243 34 4702)" fill="#4990EF"/>
</g>
<g id="Line 3.1">
<use xlink:href="#path8_stroke" transform="matrix(0.868243 -0.496139 0.496139 0.868243 66 4702)" fill="#4990EF"/>
</g>
<g id="Line 3.2">
<use xlink:href="#path8_stroke" transform="matrix(0.868243 -0.496139 0.496139 0.868243 98 4702)" fill="#4990EF"/>
</g>
</g>
</g>
<defs>
<path id="path0_fill" d="M 0 1C 0 0.447715 0.447715 0 1 0L 48 0C 48.5523 0 49 0.447715 49 1L 49 27C 49 27.5523 48.5523 28 48 28L 1 28C 0.447715 28 0 27.5523 0 27L 0 1Z"/>
<path id="path1_stroke" d="M 0 0L 32 0L 32 -1L 0 -1L 0 0Z"/>
<path id="path2_stroke" d="M 0 0L 21 0L 21 -1L 0 -1L 0 0Z"/>
<path id="path3_fill" d="M 0 1C 0 0.447715 0.447715 0 1 0L 20 0C 20.5523 0 21 0.447715 21 1L 21 15C 21 15.5523 20.5523 16 20 16L 1 16C 0.447715 16 0 15.5523 0 15L 0 1Z"/>
<path id="path4_stroke_2x" d="M 1 1L 20 1L 20 -1L 1 -1L 1 1ZM 20 1L 20 15L 22 15L 22 1L 20 1ZM 20 15L 1 15L 1 17L 20 17L 20 15ZM 1 15L 1 1L -1 1L -1 15L 1 15ZM 1 15L 1 15L -1 15C -1 16.1046 -0.104569 17 1 17L 1 15ZM 20 15L 20 15L 20 17C 21.1046 17 22 16.1046 22 15L 20 15ZM 20 1L 20 1L 22 1C 22 -0.104569 21.1046 -1 20 -1L 20 1ZM 1 -1C -0.104569 -1 -1 -0.104569 -1 1L 1 1L 1 1L 1 -1Z"/>
<path id="path5_fill" d="M 0 1C 0 0.447715 0.447715 0 1 0L 12 0C 12.5523 0 13 0.447715 13 1L 13 7C 13 7.55228 12.5523 8 12 8L 1 8C 0.447715 8 0 7.55228 0 7L 0 1Z"/>
<path id="path6_stroke_2x" d="M 1 1L 12 1L 12 -1L 1 -1L 1 1ZM 12 1L 12 7L 14 7L 14 1L 12 1ZM 12 7L 1 7L 1 9L 12 9L 12 7ZM 1 7L 1 1L -1 1L -1 7L 1 7ZM 1 7L 1 7L -1 7C -1 8.10457 -0.104569 9 1 9L 1 7ZM 12 7L 12 7L 12 9C 13.1046 9 14 8.10457 14 7L 12 7ZM 12 1L 12 1L 14 1C 14 -0.104569 13.1046 -1 12 -1L 12 1ZM 1 -1C -0.104569 -1 -1 -0.104569 -1 1L 1 1L 1 1L 1 -1Z"/>
<path id="path7_stroke" d="M 31.7878 0L 31.7878 25L 32.7878 25L 32.7878 0L 31.7878 0ZM 31.6922 0.0587173L -0.307822 25.0587L 0.307822 25.8467L 32.3078 0.846742L 31.6922 0.0587173ZM 32.2677 0.846742L 64.2677 25.8467L 64.8834 25.0587L 32.8834 0.0587173L 32.2677 0.846742Z"/>
<path id="path8_stroke" d="M 0 0L 16.1245 0L 16.1245 -1L 0 -1L 0 0Z"/>
</defs>
</svg>
