<svg width="56" height="60" viewBox="0 0 56 60" version="1.1" xmlns="http://www.w3.org/2000/svg" xmlns:xlink="http://www.w3.org/1999/xlink">
<title>ico-4</title>
<desc>Created using Figma</desc>
<g id="Canvas" transform="translate(545 -3617)">
<g id="ico-4">
<g id="Vector">
<mask id="mask0_outline_out">
<rect id="mask0_outline_inv" fill="white" x="-2" y="-2" width="56" height="60" transform="translate(-543 3619)"/>
<use xlink:href="#path0_fill" fill="black" transform="translate(-543 3619)"/>
<use xlink:href="#path1_fill" fill="black" transform="translate(-543 3619)"/>
<use xlink:href="#path2_fill" fill="black" transform="translate(-543 3619)"/>
<use xlink:href="#path3_fill" fill="black" transform="translate(-543 3619)"/>
<use xlink:href="#path4_fill" fill="black" transform="translate(-543 3619)"/>
<use xlink:href="#path5_fill" fill="black" transform="translate(-543 3619)"/>
<use xlink:href="#path6_fill" fill="black" transform="translate(-543 3619)"/>
<use xlink:href="#path7_fill" fill="black" transform="translate(-543 3619)"/>
<use xlink:href="#path8_fill" fill="black" transform="translate(-543 3619)"/>
<use xlink:href="#path9_fill" fill="black" transform="translate(-543 3619)"/>
<use xlink:href="#path10_fill" fill="black" transform="translate(-543 3619)"/>
<use xlink:href="#path11_fill" fill="black" transform="translate(-543 3619)"/>
<use xlink:href="#path12_fill" fill="black" transform="translate(-543 3619)"/>
<use xlink:href="#path13_fill" fill="black" transform="translate(-543 3619)"/>
<use xlink:href="#path14_fill" fill="black" transform="translate(-543 3619)"/>
<use xlink:href="#path15_fill" fill="black" transform="translate(-543 3619)"/>
<use xlink:href="#path16_fill" fill="black" transform="translate(-543 3619)"/>
<use xlink:href="#path17_fill" fill="black" transform="translate(-543 3619)"/>
</mask>
<g mask="url(#mask0_outline_out)">
<use xlink:href="#path18_stroke_2x" transform="translate(-543 3619)" fill="#2F80ED"/>
</g>
</g>
<g id="Group 12.1">
<g id="Group 8">
<g id="Group 5">
<g id="Rectangle 7">
<use xlink:href="#path19_fill" transform="translate(-543 3619)" fill="#FFFFFF"/>
<mask id="mask1_outline_out">
<rect id="mask1_outline_inv" fill="white" x="-1" y="-1" width="45" height="58" transform="translate(-543 3619)"/>
<use xlink:href="#path19_fill" fill="black" transform="translate(-543 3619)"/>
</mask>
<g mask="url(#mask1_outline_out)">
<use xlink:href="#path20_stroke_2x" transform="translate(-543 3619)" fill="#2F80ED"/>
</g>
</g>
<g id="Vector 2">
<use xlink:href="#path21_stroke" transform="translate(-537.5 3625)" fill="#2F80ED"/>
</g>
<g id="Vector 2.1">
<use xlink:href="#path21_stroke" transform="translate(-537.5 3638)" fill="#2F80ED"/>
</g>
<g id="Line 3">
<use xlink:href="#path22_stroke" transform="translate(-525 3627)" fill="#2F80ED"/>
</g>
<g id="Line 3.1">
<use xlink:href="#path23_stroke" transform="translate(-525 3630)" fill="#2F80ED"/>
</g>
<g id="Line 3.2">
<use xlink:href="#path22_stroke" transform="translate(-525 3640)" fill="#2F80ED"/>
</g>
<g id="Line 3.3">
<use xlink:href="#path23_stroke" transform="translate(-525 3643)" fill="#2F80ED"/>
</g>
<g id="Line 3.4">
<use xlink:href="#path22_stroke" transform="translate(-525 3653)" fill="#2F80ED"/>
</g>
<g id="Line 3.5">
<use xlink:href="#path23_stroke" transform="translate(-525 3656)" fill="#2F80ED"/>
</g>
<g id="Vector 3">
<use xlink:href="#path24_stroke" transform="translate(-537 3651)" fill="#2F80ED"/>
</g>
</g>
</g>
<g id="Rectangle 7">
<use xlink:href="#path25_fill" transform="translate(-509 3631)" fill="#FFFFFF"/>
<mask id="mask2_outline_out">
<rect id="mask2_outline_inv" fill="white" x="-1" y="-1" width="20" height="40" transform="translate(-509 3631)"/>
<use xlink:href="#path25_fill" fill="black" transform="translate(-509 3631)"/>
</mask>
<g mask="url(#mask2_outline_out)">
<use xlink:href="#path26_stroke_2x" transform="translate(-509 3631)" fill="#2F80ED"/>
</g>
</g>
<g id="Rectangle 7">
<use xlink:href="#path27_fill" transform="translate(-509 3634)" fill="#EBF0F7"/>
<mask id="mask3_outline_out">
<rect id="mask3_outline_inv" fill="white" x="-1" y="-1" width="20" height="32" transform="translate(-509 3634)"/>
<use xlink:href="#path27_fill" fill="black" transform="translate(-509 3634)"/>
</mask>
<g mask="url(#mask3_outline_out)">
<use xlink:href="#path28_stroke_2x" transform="translate(-509 3634)" fill="#2F80ED"/>
</g>
</g>
<g id="Group 11">
<g id="Line 4">
<use xlink:href="#path29_stroke" transform="translate(-506 3638)" fill="#2F80ED"/>
</g>
<g id="Line 4.1">
<use xlink:href="#path30_stroke" transform="translate(-506 3640)" fill="#2F80ED"/>
</g>
</g>
<g id="Group 11.1">
<g id="Line 4">
<use xlink:href="#path29_stroke" transform="translate(-501 3644)" fill="#2F80ED"/>
</g>
<g id="Line 4.1">
<use xlink:href="#path30_stroke" transform="translate(-501 3646)" fill="#2F80ED"/>
</g>
</g>
<g id="Group 11.2">
<g id="Line 4">
<use xlink:href="#path29_stroke" transform="translate(-506 3650)" fill="#2F80ED"/>
</g>
<g id="Line 4.1">
<use xlink:href="#path30_stroke" transform="translate(-506 3652)" fill="#2F80ED"/>
</g>
</g>
<g id="Group 11.3">
<g id="Line 4">
<use xlink:href="#path29_stroke" transform="translate(-501 3656)" fill="#2F80ED"/>
</g>
<g id="Line 4.1">
<use xlink:href="#path30_stroke" transform="translate(-501 3658)" fill="#2F80ED"/>
</g>
</g>
</g>
</g>
</g>
<defs>
<path id="path0_fill" d="M 0 1C 0 0.447715 0.447715 0 1 0L 42 0C 42.5523 0 43 0.447715 43 1L 43 55C 43 55.5523 42.5523 56 42 56L 1 56C 0.447715 56 0 55.5523 0 55L 0 1Z"/>
<path id="path1_fill" d="M 18 7.5L 38 7.5Z"/>
<path id="path2_fill" d="M 18 10.5L 33 10.5Z"/>
<path id="path3_fill" d="M 18 20.5L 38 20.5Z"/>
<path id="path4_fill" d="M 18 23.5L 33 23.5Z"/>
<path id="path5_fill" d="M 18 33.5L 38 33.5Z"/>
<path id="path6_fill" d="M 18 36.5L 33 36.5Z"/>
<path id="path7_fill" d="M 34 13C 34 12.4477 34.4477 12 35 12L 51 12C 51.5523 12 52 12.4477 52 13L 52 49C 52 49.5523 51.5523 50 51 50L 35 50C 34.4477 50 34 49.5523 34 49L 34 13Z"/>
<path id="path8_fill" d="M 34 14.5L 52 14.5Z"/>
<path id="path9_fill" d="M 34 44.5L 52 44.5Z"/>
<path id="path10_fill" d="M 37 18.5L 46 18.5Z"/>
<path id="path11_fill" d="M 37 20.5L 42 20.5Z"/>
<path id="path12_fill" d="M 42 24.5L 51 24.5Z"/>
<path id="path13_fill" d="M 42 26.5L 47 26.5Z"/>
<path id="path14_fill" d="M 37 30.5L 46 30.5Z"/>
<path id="path15_fill" d="M 37 32.5L 42 32.5Z"/>
<path id="path16_fill" d="M 42 36.5L 51 36.5Z"/>
<path id="path17_fill" d="M 42 38.5L 47 38.5Z"/>
<path id="path18_stroke_2x" d="M 7.29289 11.2929L 8 10.5858L 8 10.5858L 7.29289 11.2929ZM 8.70711 11.2929L 9.41421 12L 9.41421 12L 8.70711 11.2929ZM 7.29289 24.2929L 8 23.5858L 8 23.5858L 7.29289 24.2929ZM 8.70711 24.2929L 9.41421 25L 9.41421 25L 8.70711 24.2929ZM 4.79289 10.2071L 6.58579 12L 8 10.5858L 6.20711 8.79289L 4.79289 10.2071ZM 9.41421 12L 14.7071 6.70711L 13.2929 5.29289L 8 10.5858L 9.41421 12ZM 6.58579 12C 7.36683 12.781 8.63316 12.781 9.41421 12L 8 10.5858L 8 10.5858L 6.58579 12ZM 4.79289 23.2071L 6.58579 25L 8 23.5858L 6.20711 21.7929L 4.79289 23.2071ZM 9.41421 25L 14.7071 19.7071L 13.2929 18.2929L 8 23.5858L 9.41421 25ZM 6.58579 25C 7.36684 25.781 8.63317 25.781 9.41421 25L 8 23.5858L 8 23.5858L 6.58579 25ZM 5.29289 32.7071L 8.29289 35.7071L 9.70711 34.2929L 6.70711 31.2929L 5.29289 32.7071ZM 8.29289 35.7071L 11.2929 38.7071L 12.7071 37.2929L 9.70711 34.2929L 8.29289 35.7071ZM 9.70711 35.7071L 12.7071 32.7071L 11.2929 31.2929L 8.29289 34.2929L 9.70711 35.7071ZM 8.29289 34.2929L 5.29289 37.2929L 6.70711 38.7071L 9.70711 35.7071L 8.29289 34.2929ZM 1 2L 42 2L 42 -2L 1 -2L 1 2ZM 41 1L 41 55L 45 55L 45 1L 41 1ZM 42 54L 1 54L 1 58L 42 58L 42 54ZM 2 55L 2 1L -2 1L -2 55L 2 55ZM 1 54C 1.55228 54 2 54.4477 2 55L -2 55C -2 56.6569 -0.656854 58 1 58L 1 54ZM 41 55C 41 54.4477 41.4477 54 42 54L 42 58C 43.6569 58 45 56.6569 45 55L 41 55ZM 42 2C 41.4477 2 41 1.55228 41 1L 45 1C 45 -0.656854 43.6569 -2 42 -2L 42 2ZM 1 -2C -0.656854 -2 -2 -0.656854 -2 1L 2 1C 2 1.55228 1.55228 2 1 2L 1 -2ZM 18 9.5L 38 9.5L 38 5.5L 18 5.5L 18 9.5ZM 18 12.5L 33 12.5L 33 8.5L 18 8.5L 18 12.5ZM 18 22.5L 38 22.5L 38 18.5L 18 18.5L 18 22.5ZM 18 25.5L 33 25.5L 33 21.5L 18 21.5L 18 25.5ZM 18 35.5L 38 35.5L 38 31.5L 18 31.5L 18 35.5ZM 18 38.5L 33 38.5L 33 34.5L 18 34.5L 18 38.5ZM 35 14L 51 14L 51 10L 35 10L 35 14ZM 50 13L 50 49L 54 49L 54 13L 50 13ZM 51 48L 35 48L 35 52L 51 52L 51 48ZM 36 49L 36 13L 32 13L 32 49L 36 49ZM 35 48C 35.5523 48 36 48.4477 36 49L 32 49C 32 50.6569 33.3431 52 35 52L 35 48ZM 50 49C 50 48.4477 50.4477 48 51 48L 51 52C 52.6569 52 54 50.6569 54 49L 50 49ZM 51 14C 50.4477 14 50 13.5523 50 13L 54 13C 54 11.3431 52.6569 10 51 10L 51 14ZM 35 10C 33.3431 10 32 11.3431 32 13L 36 13C 36 13.5523 35.5523 14 35 14L 35 10ZM 34 16.5L 52 16.5L 52 12.5L 34 12.5L 34 16.5ZM 34 46.5L 52 46.5L 52 42.5L 34 42.5L 34 46.5ZM 37 20.5L 46 20.5L 46 16.5L 37 16.5L 37 20.5ZM 37 22.5L 42 22.5L 42 18.5L 37 18.5L 37 22.5ZM 42 26.5L 51 26.5L 51 22.5L 42 22.5L 42 26.5ZM 42 28.5L 47 28.5L 47 24.5L 42 24.5L 42 28.5ZM 37 32.5L 46 32.5L 46 28.5L 37 28.5L 37 32.5ZM 37 34.5L 42 34.5L 42 30.5L 37 30.5L 37 34.5ZM 42 38.5L 51 38.5L 51 34.5L 42 34.5L 42 38.5ZM 42 40.5L 47 40.5L 47 36.5L 42 36.5L 42 40.5Z"/>
<path id="path19_fill" d="M 0 1C 0 0.447715 0.447715 0 1 0L 42 0C 42.5523 0 43 0.447715 43 1L 43 55C 43 55.5523 42.5523 56 42 56L 1 56C 0.447715 56 0 55.5523 0 55L 0 1Z"/>
<path id="path20_stroke_2x" d="M 1 1L 42 1L 42 -1L 1 -1L 1 1ZM 42 1L 42 55L 44 55L 44 1L 42 1ZM 42 55L 1 55L 1 57L 42 57L 42 55ZM 1 55L 1 1L -1 1L -1 55L 1 55ZM 1 55L 1 55L -1 55C -1 56.1046 -0.104569 57 1 57L 1 55ZM 42 55L 42 55L 42 57C 43.1046 57 44 56.1046 44 55L 42 55ZM 42 1L 42 1L 44 1C 44 -0.104569 43.1046 -1 42 -1L 42 1ZM 1 -1C -0.104569 -1 -1 -0.104569 -1 1L 1 1L 1 1L 1 -1Z"/>
<path id="path21_stroke" d="M 1.79289 5.29289L 2.32322 4.76256L 2.32322 4.76256L 1.79289 5.29289ZM 3.20711 5.29289L 3.73744 5.82322L 3.73744 5.82322L 3.20711 5.29289ZM -0.53033 4.03033L 1.26256 5.82322L 2.32322 4.76256L 0.53033 2.96967L -0.53033 4.03033ZM 3.73744 5.82322L 9.03033 0.53033L 7.96967 -0.53033L 2.67678 4.76256L 3.73744 5.82322ZM 1.26256 5.82322C 1.94598 6.50664 3.05402 6.50664 3.73744 5.82322L 2.67678 4.76256C 2.57915 4.86019 2.42085 4.86019 2.32322 4.76256L 1.26256 5.82322Z"/>
<path id="path22_stroke" d="M 0 0L 20 0L 20 -1L 0 -1L 0 0Z"/>
<path id="path23_stroke" d="M 0 0L 15 0L 15 -1L 0 -1L 0 0Z"/>
<path id="path24_stroke" d="M -0.53033 0.53033L 2.46967 3.53033L 3.53033 2.46967L 0.53033 -0.53033L -0.53033 0.53033ZM 2.46967 3.53033L 5.46967 6.53033L 6.53033 5.46967L 3.53033 2.46967L 2.46967 3.53033ZM 3.53033 3.53033L 6.53033 0.53033L 5.46967 -0.53033L 2.46967 2.46967L 3.53033 3.53033ZM 2.46967 2.46967L -0.53033 5.46967L 0.53033 6.53033L 3.53033 3.53033L 2.46967 2.46967Z"/>
<path id="path25_fill" d="M 0 1C 0 0.447715 0.447715 0 1 0L 17 0C 17.5523 0 18 0.447715 18 1L 18 37C 18 37.5523 17.5523 38 17 38L 1 38C 0.447715 38 0 37.5523 0 37L 0 1Z"/>
<path id="path26_stroke_2x" d="M 1 1L 17 1L 17 -1L 1 -1L 1 1ZM 17 1L 17 37L 19 37L 19 1L 17 1ZM 17 37L 1 37L 1 39L 17 39L 17 37ZM 1 37L 1 1L -1 1L -1 37L 1 37ZM 1 37L 1 37L -1 37C -1 38.1046 -0.104569 39 1 39L 1 37ZM 17 37L 17 37L 17 39C 18.1046 39 19 38.1046 19 37L 17 37ZM 17 1L 17 1L 19 1C 19 -0.104569 18.1046 -1 17 -1L 17 1ZM 1 -1C -0.104569 -1 -1 -0.104569 -1 1L 1 1L 1 1L 1 -1Z"/>
<path id="path27_fill" d="M 0 0L 18 0L 18 30L 0 30L 0 0Z"/>
<path id="path28_stroke_2x" d="M 0 0L 0 -1L -1 -1L -1 0L 0 0ZM 18 0L 19 0L 19 -1L 18 -1L 18 0ZM 18 30L 18 31L 19 31L 19 30L 18 30ZM 0 30L -1 30L -1 31L 0 31L 0 30ZM 0 1L 18 1L 18 -1L 0 -1L 0 1ZM 17 0L 17 30L 19 30L 19 0L 17 0ZM 18 29L 0 29L 0 31L 18 31L 18 29ZM 1 30L 1 0L -1 0L -1 30L 1 30Z"/>
<path id="path29_stroke" d="M 0 0L 9 0L 9 -1L 0 -1L 0 0Z"/>
<path id="path30_stroke" d="M 0 0L 5 0L 5 -1L 0 -1L 0 0Z"/>
</defs>
</svg>
